Startup.Configuration => InicializarSecurity.Seed => Logger.Info Inicializar Roles
RoleActions.AddUserAndRole => RoleActions.Logger => Logger.Info No se creo el usuario admin
InicializarSecurity.Seed => InicializarSecurity.InicializarUsuarios => Logger.Info usuario: 00000000 y password usuario2018.
